{
    "defaultSeverity": "error",
    "extends": [
        "tslint:recommended"
    ],
    "jsRules": {},
    "rules": {
        "no-console": false,
        "only-arrow-functions": false,
        "no-var-requires": false,
        "trailing-comma": [ false ],
        "triple-equals": false,
        "prefer-for-of": false,
        "prefer-const": false,
        "max-classes-per-file": false
    },
    "rulesDirectory": []
}